Dissent Scores - Create the Country-Year Observations
…
With the exception of the code PAL, these are all correct matches, but the three data sets use slightly different spellings for the three countries. Because Palestine is not in the COW systems data, it is not included in our country-year data set.

Resolve the Ambiguous Matches

countrycode() failed to unambigously match 28 countries, shown below

cc_joined |>
  filter(is.na(ccode)) |> 
  select(starts_with("idea")) 

# A tibble: 28 × 2
   idea_country_name     idea_code
   <chr>                 <chr>    
 1 Antigua and Barbuda   ANT      
 2 Cook Islands          COO      
 3 Turkish Cyprus        CYT      
 4 Dominica              DMI      
 5 Fiji                  FJI      
 6 Micronesia            FMS      
 7 Germany               FRG      
 8 East and West Germany GDR/FRG  
 9 Cote d Ivoire         IVO      
10 Monaco                MCO      
# ℹ 18 more rows
…
